{
    "created_at": "Tue Dec 07 21:29:47 +0000 2021",
    "id": 1468331930655633424,
    "id_str": "1468331930655633424",
    "text": "The latest The #AI, #Bigdata, #digitaltransformation, Daily! https://t.co/5NAubHbebn Thanks to @nocodeau… https://t.co/v5E5bRUlLa",
    "source": "<a href=\"https://paper.li\" rel=\"nofollow\">Paper.li</a>",
    "truncated": true,
    "in_reply_to_status_id": null,
    "in_reply_to_status_id_str": null,
    "in_reply_to_user_id": null,
    "in_reply_to_user_id_str": null,
    "in_reply_to_screen_name": null,
    "user": {
        "id": 1033150020118138887,
        "id_str": "1033150020118138887",
        "name": "GlobalCompass",
        "screen_name": "GlobalCompHub",
        "location": "Portland, OR",
        "url": "http://www.globalcompasshub.com",
        "description": "Make the leap to #Bigdata #digitaltransformation and #AI",
        "translator_type": "none",
        "protected": false,
        "verified": false,
        "followers_count": 114,
        "friends_count": 190,
        "listed_count": 2,
        "favourites_count": 68,
        "statuses_count": 1173,
        "created_at": "Sat Aug 25 00:32:14 +0000 2018",
        "utc_offset": null,
        "time_zone": null,
        "geo_enabled": false,
        "lang": null,
        "contributors_enabled": false,
        "is_translator": false,
        "profile_background_color": "F5F8FA",
        "profile_background_image_url": "",
        "profile_background_image_url_https": "",
        "profile_background_tile": false,
        "profile_link_color": "1DA1F2",
        "profile_sidebar_border_color": "C0DEED",
        "profile_sidebar_fill_color": "DDEEF6",
        "profile_text_color": "333333",
        "profile_use_background_image": true,
        "profile_image_url": "http://pbs.twimg.com/profile_images/1077130701277806593/lO8Cutfu_normal.jpg",
        "profile_image_url_https": "https://pbs.twimg.com/profile_images/1077130701277806593/lO8Cutfu_normal.jpg",
        "profile_banner_url": "https://pbs.twimg.com/profile_banners/1033150020118138887/1545642995",
        "default_profile": true,
        "default_profile_image": false,
        "following": null,
        "follow_request_sent": null,
        "notifications": null,
        "withheld_in_countries": []
    },
    "geo": null,
    "coordinates": null,
    "place": null,
    "contributors": null,
    "is_quote_status": false,
    "extended_tweet": {
        "full_text": "The latest The #AI, #Bigdata, #digitaltransformation, Daily! https://t.co/5NAubHbebn Thanks to @nocodeau @mohitsethi @RBXRetweetBot #ai #machinelearning",
        "display_text_range": [
            0,
            152
        ],
        "entities": {
            "hashtags": [
                {
                    "text": "AI",
                    "indices": [
                        15,
                        18
                    ]
                },
                {
                    "text": "Bigdata",
                    "indices": [
                        20,
                        28
                    ]
                },
                {
                    "text": "digitaltransformation",
                    "indices": [
                        30,
                        52
                    ]
                },
                {
                    "text": "ai",
                    "indices": [
                        132,
                        135
                    ]
                },
                {
                    "text": "machinelearning",
                    "indices": [
                        136,
                        152
                    ]
                }
            ],
            "urls": [
                {
                    "url": "https://t.co/5NAubHbebn",
                    "expanded_url": "https://paper.li/GlobalCompHub/1546378058?share_id=cd33f470-57a4-11ec-9232-fa163e65ae25",
                    "display_url": "paper.li/GlobalCompHub/…",
                    "indices": [
                        61,
                        84
                    ]
                }
            ],
            "user_mentions": [
                {
                    "screen_name": "nocodeau",
                    "name": "nocodeau",
                    "id": 1218816863334850561,
                    "id_str": "1218816863334850561",
                    "indices": [
                        95,
                        104
                    ]
                },
                {
                    "screen_name": "mohitsethi",
                    "name": "Mohit Sethi",
                    "id": 21491240,
                    "id_str": "21491240",
                    "indices": [
                        105,
                        116
                    ]
                },
                {
                    "screen_name": "RBXRetweetBot",
                    "name": "Roblox Dev Retweet Bot",
                    "id": 1422011374662791170,
                    "id_str": "1422011374662791170",
                    "indices": [
                        117,
                        131
                    ]
                }
            ],
            "symbols": []
        }
    },
    "quote_count": 0,
    "reply_count": 0,
    "retweet_count": 0,
    "favorite_count": 0,
    "entities": {
        "hashtags": [
            {
                "text": "AI",
                "indices": [
                    15,
                    18
                ]
            },
            {
                "text": "Bigdata",
                "indices": [
                    20,
                    28
                ]
            },
            {
                "text": "digitaltransformation",
                "indices": [
                    30,
                    52
                ]
            }
        ],
        "urls": [
            {
                "url": "https://t.co/5NAubHbebn",
                "expanded_url": "https://paper.li/GlobalCompHub/1546378058?share_id=cd33f470-57a4-11ec-9232-fa163e65ae25",
                "display_url": "paper.li/GlobalCompHub/…",
                "indices": [
                    61,
                    84
                ]
            },
            {
                "url": "https://t.co/v5E5bRUlLa",
                "expanded_url": "https://twitter.com/i/web/status/1468331930655633424",
                "display_url": "twitter.com/i/web/status/1…",
                "indices": [
                    106,
                    129
                ]
            }
        ],
        "user_mentions": [
            {
                "screen_name": "nocodeau",
                "name": "nocodeau",
                "id": 1218816863334850561,
                "id_str": "1218816863334850561",
                "indices": [
                    95,
                    104
                ]
            }
        ],
        "symbols": []
    },
    "favorited": false,
    "retweeted": false,
    "possibly_sensitive": false,
    "filter_level": "low",
    "lang": "en",
    "timestamp_ms": "1638912587213"
}